^C:\USERS\MIB\DOCUMENTS\VISUAL STUDIO 2010\PROJECTS\UMFRAGEAUSWERTUNG\UMFRAGEAUSWERTUNG\FORM1.RESX
^C:\USERS\MIB\DOCUMENTS\VISUAL STUDIO 2010\PROJECTS\UMFRAGEAUSWERTUNG\UMFRAGEAUSWERTUNG\FORM2.RESX
^C:\USERS\MIB\DOCUMENTS\VISUAL STUDIO 2010\PROJECTS\UMFRAGEAUSWERTUNG\UMFRAGEAUSWERTUNG\FORM3.RESX
^C:\USERS\MIB\DOCUMENTS\VISUAL STUDIO 2010\PROJECTS\UMFRAGEAUSWERTUNG\UMFRAGEAUSWERTUNG\FORM4.RESX
^C:\USERS\MIB\DOCUMENTS\VISUAL STUDIO 2010\PROJECTS\UMFRAGEAUSWERTUNG\UMFRAGEAUSWERTUNG\FORM5.RESX
^C:\USERS\MIB\DOCUMENTS\VISUAL STUDIO 2010\PROJECTS\UMFRAGEAUSWERTUNG\UMFRAGEAUSWERTUNG\PROPERTIES\RESOURCES.RESX
^C:\DOKUMENTE UND EINSTELLUNGEN\BERTHOLD\EIGENE DATEIEN\VISUAL STUDIO 2010\PROJECTS\UMFRAGEAUSWERTUNG\UMFRAGEAUSWERTUNG\FORM2.RESX
^C:\DOKUMENTE UND EINSTELLUNGEN\BERTHOLD\EIGENE DATEIEN\VISUAL STUDIO 2010\PROJECTS\UMFRAGEAUSWERTUNG\UMFRAGEAUSWERTUNG\FORM3.RESX
^C:\DOKUMENTE UND EINSTELLUNGEN\BERTHOLD\EIGENE DATEIEN\VISUAL STUDIO 2010\PROJECTS\UMFRAGEAUSWERTUNG\UMFRAGEAUSWERTUNG\FORM4.RESX
^C:\DOKUMENTE UND EINSTELLUNGEN\BERTHOLD\EIGENE DATEIEN\VISUAL STUDIO 2010\PROJECTS\UMFRAGEAUSWERTUNG\UMFRAGEAUSWERTUNG\FORM5.RESX
^C:\DOKUMENTE UND EINSTELLUNGEN\BERTHOLD\EIGENE DATEIEN\VISUAL STUDIO 2010\PROJECTS\UMFRAGEAUSWERTUNG\UMFRAGEAUSWERTUNG\PROPERTIES\RESOURCES.RESX
^C:\DOKUMENTE UND EINSTELLUNGEN\BERTHOLD\EIGENE DATEIEN\VISUAL STUDIO 2010\PROJECTS\UMFRAGEAUSWERTUNG\UMFRAGEAUSWERTUNG\FORM1.RESX
