^C:\DOKUMENTE UND EINSTELLUNGEN\BERTHOLD\EIGENE DATEIEN\VISUAL STUDIO 2010\PROJECTS\UMFRAGEAUSWERTUNG\UMFRAGEAUSWERTUNG\FORM1.RESX|C:\DOKUMENTE UND EINSTELLUNGEN\BERTHOLD\EIGENE DATEIEN\VISUAL STUDIO 2010\PROJECTS\UMFRAGEAUSWERTUNG\UMFRAGEAUSWERTUNG\FORM2.RESX|C:\DOKUMENTE UND EINSTELLUNGEN\BERTHOLD\EIGENE DATEIEN\VISUAL STUDIO 2010\PROJECTS\UMFRAGEAUSWERTUNG\UMFRAGEAUSWERTUNG\FORM3.RESX|C:\DOKUMENTE UND EINSTELLUNGEN\BERTHOLD\EIGENE DATEIEN\VISUAL STUDIO 2010\PROJECTS\UMFRAGEAUSWERTUNG\UMFRAGEAUSWERTUNG\FORM4.RESX|C:\DOKUMENTE UND EINSTELLUNGEN\BERTHOLD\EIGENE DATEIEN\VISUAL STUDIO 2010\PROJECTS\UMFRAGEAUSWERTUNG\UMFRAGEAUSWERTUNG\FORM5.RESX|C:\DOKUMENTE UND EINSTELLUNGEN\BERTHOLD\EIGENE DATEIEN\VISUAL STUDIO 2010\PROJECTS\UMFRAGEAUSWERTUNG\UMFRAGEAUSWERTUNG\PROPERTIES\RESOURCES.RESX
C:\DOKUMENTE UND EINSTELLUNGEN\BERTHOLD\EIGENE DATEIEN\VISUAL STUDIO 2010\PROJECTS\UMFRAGEAUSWERTUNG\UMFRAGEAUSWERTUNG\OBJ\X86\RELEASE\UMFRAGEAUSWERTUNG.FORM1.RESOURCES
C:\DOKUMENTE UND EINSTELLUNGEN\BERTHOLD\EIGENE DATEIEN\VISUAL STUDIO 2010\PROJECTS\UMFRAGEAUSWERTUNG\UMFRAGEAUSWERTUNG\OBJ\X86\RELEASE\UMFRAGEAUSWERTUNG.FORM2.RESOURCES
C:\DOKUMENTE UND EINSTELLUNGEN\BERTHOLD\EIGENE DATEIEN\VISUAL STUDIO 2010\PROJECTS\UMFRAGEAUSWERTUNG\UMFRAGEAUSWERTUNG\OBJ\X86\RELEASE\UMFRAGEAUSWERTUNG.FORM3.RESOURCES
C:\DOKUMENTE UND EINSTELLUNGEN\BERTHOLD\EIGENE DATEIEN\VISUAL STUDIO 2010\PROJECTS\UMFRAGEAUSWERTUNG\UMFRAGEAUSWERTUNG\OBJ\X86\RELEASE\UMFRAGEAUSWERTUNG.FORM4.RESOURCES
C:\DOKUMENTE UND EINSTELLUNGEN\BERTHOLD\EIGENE DATEIEN\VISUAL STUDIO 2010\PROJECTS\UMFRAGEAUSWERTUNG\UMFRAGEAUSWERTUNG\OBJ\X86\RELEASE\UMFRAGEAUSWERTUNG.FORM5.RESOURCES
C:\DOKUMENTE UND EINSTELLUNGEN\BERTHOLD\EIGENE DATEIEN\VISUAL STUDIO 2010\PROJECTS\UMFRAGEAUSWERTUNG\UMFRAGEAUSWERTUNG\OBJ\X86\RELEASE\UMFRAGEAUSWERTUNG.PROPERTIES.RESOURCES.RESOURCES
